{
  "realm": "tidsbanken-keycloak",
  "auth-server-url": "https://lemur-3.cloud-iam.com/auth/",
  "ssl-required": "external",
  "resource": "tidsbanken-react",
  "public-client": true,
  "confidential-port": 0
}